^C:\USERS\MAGSHIMIM\SOURCE\REPOS\ASSEMBLYPROJECT\DLL\MYDLL.CPP
C:\USERS\MAGSHIMIM\SOURCE\REPOS\ASSEMBLYPROJECT\DLL\X64\RELEASE\VC141.PDB
C:\USERS\MAGSHIMIM\SOURCE\REPOS\ASSEMBLYPROJECT\DLL\X64\RELEASE\MYDLL.OBJ
